…
str(select.prots)
```

    ##  chr [1:6945] "A0A024RBG1" "A0A075B6T6" "A0A0B4J245" "A0A0U1RRE5" "A0AVK6" ...

import proteomic quantification data

``` r
dat <- read_tsv("Data/20240624_TOOPS_output_report.pg_matrix.tsv")

dat
```

    ## # A tibble: 8,194 × 26
    ##    Protein.Group          Protein.Ids Protein.Names Genes First.Protein.Descri…¹
    ##    <chr>                  <chr>       <chr>         <chr> <chr>                 
    ##  1 A0A024RBG1             A0A024RBG1  NUD4B_HUMAN   NUDT… Diphosphoinositol pol…
    ##  2 A0A024RBG1;O95989;Q9N… Q9NZJ9;Q8N… NUD4B_HUMAN;… NUDT… Diphosphoinositol pol…
    ##  3 A0A024RBG1;Q9NZJ9      Q9NZJ9;A0A… NUD4B_HUMAN;… NUDT… Diphosphoinositol pol…
    ##  4 A0A075B6T6             A0A075B6T6  TVAL2_HUMAN   TRAV… T cell receptor alpha…
    ##  5 A0A087WW87;P01614      P01614;A0A… KV240_HUMAN;… IGKV… Immunoglobulin kappa …
    ##  6 A0A0A6YYC5             A0A0A6YYC5  TVA14_HUMAN   TRAV… T cell receptor alpha…
    ##  7 A0A0A6YYJ7             A0A0A6YYJ7  TVA83_HUMAN   TRAV… T cell receptor alpha…
    ##  8 A0A0A6YYK7             A0A0A6YYK7  TVA19_HUMAN   TRAV… T cell receptor alpha…
    ##  9 A0A0B4J245             A0A0B4J245  TVAL1_HUMAN   TRAV… T cell receptor alpha…
    ## 10 A0A0B4J275             A0A0B4J275  TVA17_HUMAN   TRAV… T cell receptor alpha…
    ## # ℹ 8,184 more rows
    ## # ℹ abbreviated name: ¹​First.Protein.Description
    ## # ℹ 21 more variables:
    ## #   `C:\\Users\\massspecuser\\Desktop\\20240622_Carmen\\RES00360_Anouk_Jurgens\\20240620_AnoukJurgens_TOOPS\\1_0h_DMSO_donor1_S2-A10_1_9342.d` <dbl>,
    ## #   `C:\\Users\\massspecuser\\Desktop\\20240622_Carmen\\RES00360_Anouk_Jurgens\\20240620_AnoukJurgens_TOOPS\\2_0h_6hTorin1_Donor1_S2-B10_1_9343.d` <dbl>,
    ## #   `C:\\Users\\massspecuser\\Desktop\\20240622_Carmen\\RES00360_Anouk_Jurgens\\20240620_AnoukJurgens_TOOPS\\3_0h_24hTorin1_Donor1_S2-C10_1_9344.d` <dbl>,
    ## #   `C:\\Users\\massspecuser\\Desktop\\20240622_Carmen\\RES00360_Anouk_Jurgens\\20240620_AnoukJurgens_TOOPS\\4_6h_DMSO_Donor1_S2-D10_1_9345.d` <dbl>, …
…
``` r
dat %>% 
  filter(Protein.Group %in% select.prots) %>% 
  pivot_longer(contains("Users"), names_to = "sample", values_to = "LFQ") %>% 
  mutate(sample = str_extract(sample, "\\d+_\\d+h_.+onor\\d+")) %>% 
  separate(sample, into = c("sample.nr", "timepoint", "condition", "donor")) %>% 
  mutate(donor = str_to_lower(donor)) %>% 
  mutate(LFQ = log2(LFQ)) %>% 
  mutate(condition = factor(condition, levels = c("DMSO", "6hTorin1", "24hTorin1", "Torin1"))) %>% 
  mutate(timepoint = factor(timepoint, levels = c("0h", "6h", "24h")))-> dat

dat
```

    ## # A tibble: 145,845 × 10
    ##    Protein.Group Protein.Ids Protein.Names Genes  First.Protein.Description     
    ##    <chr>         <chr>       <chr>         <chr>  <chr>                         
    ##  1 A0A024RBG1    A0A024RBG1  NUD4B_HUMAN   NUDT4B Diphosphoinositol polyphospha…
    ##  2 A0A024RBG1    A0A024RBG1  NUD4B_HUMAN   NUDT4B Diphosphoinositol polyphospha…
    ##  3 A0A024RBG1    A0A024RBG1  NUD4B_HUMAN   NUDT4B Diphosphoinositol polyphospha…
    ##  4 A0A024RBG1    A0A024RBG1  NUD4B_HUMAN   NUDT4B Diphosphoinositol polyphospha…
    ##  5 A0A024RBG1    A0A024RBG1  NUD4B_HUMAN   NUDT4B Diphosphoinositol polyphospha…
    ##  6 A0A024RBG1    A0A024RBG1  NUD4B_HUMAN   NUDT4B Diphosphoinositol polyphospha…
    ##  7 A0A024RBG1    A0A024RBG1  NUD4B_HUMAN   NUDT4B Diphosphoinositol polyphospha…
    ##  8 A0A024RBG1    A0A024RBG1  NUD4B_HUMAN   NUDT4B Diphosphoinositol polyphospha…
    ##  9 A0A024RBG1    A0A024RBG1  NUD4B_HUMAN   NUDT4B Diphosphoinositol polyphospha…
    ## 10 A0A024RBG1    A0A024RBG1  NUD4B_HUMAN   NUDT4B Diphosphoinositol polyphospha…
    ## # ℹ 145,835 more rows
    ## # ℹ 5 more variables: sample.nr <chr>, timepoint <fct>, condition <fct>,
    ## #   donor <chr>, LFQ <dbl>
…
``` r
dat %>% 
  filter(condition != "6hTorin1") %>% 
  mutate(condition = case_when(condition == "24hTorin1" ~ "Torin1",
                               TRUE ~ condition)) %>% 
  mutate(timepoint = paste0("T", timepoint)) %>% 
  dplyr::select(sample.nr, Genes, timepoint, condition, donor, LFQ) %>% 
  group_by(Genes) %>%
  filter(n() < 21) %>% 
  ungroup() -> dat.forDE

dat.forDE
```

    ## # A tibble: 124,758 × 6
    ##    sample.nr Genes  timepoint condition donor    LFQ
    ##    <chr>     <chr>  <chr>     <chr>     <chr>  <dbl>
    ##  1 1         NUDT4B T0h       DMSO      donor1 NA   
    ##  2 3         NUDT4B T0h       Torin1    donor1  9.17
    ##  3 4         NUDT4B T6h       DMSO      donor1  9.59
    ##  4 5         NUDT4B T6h       Torin1    donor1  9.42
    ##  5 6         NUDT4B T24h      DMSO      donor1 10.0 
    ##  6 7         NUDT4B T24h      Torin1    donor1  9.58
    ##  7 8         NUDT4B T0h       DMSO      donor2 NA   
    ##  8 10        NUDT4B T0h       Torin1    donor2  9.95
    ##  9 11        NUDT4B T6h       DMSO      donor2  9.70
    ## 10 12        NUDT4B T6h       Torin1    donor2  9.62
    ## # ℹ 124,748 more rows
…
