…
## Import and tidy data

Import protein expression clusters

``` r
dat.activation <- read_tsv("Data/abundances_protein_clustered.tsv")

dat.activation
```

    ## # A tibble: 13,250 × 5
    ##    gene.name cluster      timepoint   LFQ scaled.LFQ
    ##    <chr>     <chr>        <chr>     <dbl>      <dbl>
    ##  1 NBDY      gradual.down T0h        11.4     1.77  
    ##  2 NBDY      gradual.down T24h       10.5    -0.383 
    ##  3 NBDY      gradual.down T2h        10.7     0.0774
    ##  4 NBDY      gradual.down T4h        10.6    -0.0555
    ##  5 NBDY      gradual.down T6h        10.3    -0.822 
    ##  6 ZC3H12D   gradual.up   T0h        10.7     0.837 
    ##  7 ZC3H12D   gradual.up   T24h       10.7     0.897 
    ##  8 ZC3H12D   gradual.up   T2h        10.0    -0.790 
    ##  9 ZC3H12D   gradual.up   T4h        10.1    -0.570 
    ## 10 ZC3H12D   gradual.up   T6h        10.3    -0.0951
    ## # ℹ 13,240 more rows
…
\`

## Testing on Torin-1 data

Import the test data

``` r
dat <- read_tsv("Output/abundances_protein_all_Torin.tsv")

dat
```

    ## # A tibble: 145,845 × 10
    ##    Protein.Group Protein.Ids Protein.Names Genes  First.Protein.Description     
    ##    <chr>         <chr>       <chr>         <chr>  <chr>                         
    ##  1 A0A024RBG1    A0A024RBG1  NUD4B_HUMAN   NUDT4B Diphosphoinositol polyphospha…
    ##  2 A0A024RBG1    A0A024RBG1  NUD4B_HUMAN   NUDT4B Diphosphoinositol polyphospha…
    ##  3 A0A024RBG1    A0A024RBG1  NUD4B_HUMAN   NUDT4B Diphosphoinositol polyphospha…
    ##  4 A0A024RBG1    A0A024RBG1  NUD4B_HUMAN   NUDT4B Diphosphoinositol polyphospha…
    ##  5 A0A024RBG1    A0A024RBG1  NUD4B_HUMAN   NUDT4B Diphosphoinositol polyphospha…
    ##  6 A0A024RBG1    A0A024RBG1  NUD4B_HUMAN   NUDT4B Diphosphoinositol polyphospha…
    ##  7 A0A024RBG1    A0A024RBG1  NUD4B_HUMAN   NUDT4B Diphosphoinositol polyphospha…
    ##  8 A0A024RBG1    A0A024RBG1  NUD4B_HUMAN   NUDT4B Diphosphoinositol polyphospha…
    ##  9 A0A024RBG1    A0A024RBG1  NUD4B_HUMAN   NUDT4B Diphosphoinositol polyphospha…
    ## 10 A0A024RBG1    A0A024RBG1  NUD4B_HUMAN   NUDT4B Diphosphoinositol polyphospha…
    ## # ℹ 145,835 more rows
    ## # ℹ 5 more variables: sample.nr <dbl>, timepoint <chr>, condition <chr>,
    ## #   donor <chr>, LFQ <dbl>
…
