…
str(select.prots)
```

    ##  chr [1:6777] "A0A075B6T6" "A0A0B4J245" "A0A0U1RRE5" "A0AVK6" "A0AVT1" ...

import proteomic quantification data

``` r
dat <- read_tsv("Data/20240625_Timecourse_report.pg_matrix.tsv")

dat
```

    ## # A tibble: 8,037 × 19
    ##    Protein.Group     Protein.Ids      Protein.Names Genes First.Protein.Descri…¹
    ##    <chr>             <chr>            <chr>         <chr> <chr>                 
    ##  1 A0A024RBG1;Q9NZJ9 Q9NZJ9;Q8NFP7;Q… NUD4B_HUMAN;… NUDT… Diphosphoinositol pol…
    ##  2 A0A075B6T6        A0A075B6T6       TVAL2_HUMAN   TRAV… T cell receptor alpha…
    ##  3 A0A0B4J241        A0A0B4J241       TVAM1_HUMAN   TRAV… T cell receptor alpha…
    ##  4 A0A0B4J245        A0A0B4J245       TVAL1_HUMAN   TRAV… T cell receptor alpha…
    ##  5 A0A0B4J279        A0A0B4J279       TVA21_HUMAN   TRAV… T cell receptor alpha…
    ##  6 A0A0B4J2D5;P0DPI2 P0DPI2;A0A0B4J2… GAL3A_HUMAN;… GATD… Glutamine amidotransf…
    ##  7 A0A0B4J2E0;P01733 P01733;A0A0B4J2… TVBL3_HUMAN;… TRBV… T cell receptor beta …
    ##  8 A0A0B4J2F0        A0A0B4J2F0       PIOS1_HUMAN   PIGB… Protein PIGBOS1       
    ##  9 A0A0B4J2F2;P57059 A0A0B4J2F2;P570… SIK1B_HUMAN;… SIK1… Probable serine/threo…
    ## 10 A0A0U1RRE5        A0A0U1RRE5       NBDY_HUMAN    NBDY  Negative regulator of…
    ## # ℹ 8,027 more rows
    ## # ℹ abbreviated name: ¹​First.Protein.Description
    ## # ℹ 14 more variables:
    ## #   `C:\\Users\\massspecuser\\Desktop\\20240622_Carmen\\RES00360_Anouk_Jurgens\\20240620_AnoukJurgens_Timecourse\\1_0h_Donor1_2_S2-A4_1_9368.d` <dbl>,
    ## #   `C:\\Users\\massspecuser\\Desktop\\20240622_Carmen\\RES00360_Anouk_Jurgens\\20240620_AnoukJurgens_Timecourse\\2_2h_Donor1_S2-B5_1_9369.d` <dbl>,
    ## #   `C:\\Users\\massspecuser\\Desktop\\20240622_Carmen\\RES00360_Anouk_Jurgens\\20240620_AnoukJurgens_Timecourse\\3_4h_Donor1_S2-C5_1_9370.d` <dbl>,
    ## #   `C:\\Users\\massspecuser\\Desktop\\20240622_Carmen\\RES00360_Anouk_Jurgens\\20240620_AnoukJurgens_Timecourse\\4_6h_Donor1_S2-D5_1_9371.d` <dbl>, …
…
dat
```

    ## # A tibble: 94,878 × 6
    ##    Protein.Ids gene.name sample.nr timepoint donor    LFQ
    ##    <chr>       <chr>     <chr>     <fct>     <chr>  <dbl>
    ##  1 A0A075B6T6  TRAV12-2  1         T0h       donor1  11.7
    ##  2 A0A075B6T6  TRAV12-2  2         T2h       donor1  11.3
    ##  3 A0A075B6T6  TRAV12-2  3         T4h       donor1  11.2
    ##  4 A0A075B6T6  TRAV12-2  4         T6h       donor1  10.7
    ##  5 A0A075B6T6  TRAV12-2  5         T24h      donor1  11.1
    ##  6 A0A075B6T6  TRAV12-2  6         T0h       donor2  11.2
    ##  7 A0A075B6T6  TRAV12-2  7         T2h       donor2  11.5
    ##  8 A0A075B6T6  TRAV12-2  8         T4h       donor2  11.4
    ##  9 A0A075B6T6  TRAV12-2  9         T6h       donor2  11.4
    ## 10 A0A075B6T6  TRAV12-2  10        T24h      donor2  11.3
    ## # ℹ 94,868 more rows
…
``` r
comparisons <- colnames(lm.fit2$coefficients)

comparisons %>% 
  map( ~get_DE(lm.fit2, .)) %>% 
  map(rownames_to_column, "gene.name") %>% 
  list_rbind() %>% 
  as_tibble() %>% 
  dplyr::rename(logFC.protein = logFC, adj.P.Val.protein = adj.P.Val) -> all.DE.protein

all.DE.protein
```

    ## # A tibble: 45,570 × 8
    ##    gene.name logFC.protein AveExpr       t P.Value adj.P.Val.protein     B
    ##    <chr>             <dbl>   <dbl>   <dbl>   <dbl>             <dbl> <dbl>
    ##  1 TRAV12-2        -0.148     11.2 -0.691  0.503               0.771 -6.59
    ##  2 NBDY            -0.753     10.7 -3.08   0.00960             0.122 -3.12
    ##  3 UBA6            -0.125     14.8 -1.82   0.0934              0.385 -5.27
    ##  4 ESYT2            0.0606    15.5  0.738  0.475               0.755 -6.56
    ##  5 MED19            0.203     12.1  1.49   0.161               0.478 -5.75
    ##  6 UHRF1BP1L        0.136     11.6  0.829  0.423               0.719 -6.48
    ##  7 TMEM223          0.0115    12.2  0.0941 0.927               0.973 -6.84
    ##  8 ARHGAP10         0.378     10.2  1.54   0.150               0.467 -5.69
    ##  9 ILVBL            0.195     15.0  2.79   0.0163              0.166 -3.64
    ## 10 ZC3H12D         -0.651     10.3 -2.42   0.0325              0.236 -4.30
    ## # ℹ 45,560 more rows
    ## # ℹ 1 more variable: comparison <chr>
…
