…
<img src="3-clustering_proteins_files/figure-gfm/unnamed-chunk-13-1.png" style="display: block; margin: auto;" />

``` r
ggsave("Figs/protein_clustering/proteinClusters_Reactome_small2.pdf", width = 110, height = 60, units = "mm", scale = 2)
```

## Plot examples

``` r
results.clusters <- as_tibble(res)

results.clusters
```

    ## # A tibble: 329 × 11
    ##    Cluster  cluster ID    Description GeneRatio BgRatio  pvalue p.adjust  qvalue
    ##    <fct>    <chr>   <chr> <chr>       <chr>     <chr>     <dbl>    <dbl>   <dbl>
    ##  1 early.up early   R-HS… Cell Cycle  36/138    488/46… 1.49e-7  7.40e-5 6.01e-5
    ##  2 early.up early   R-HS… Cell Cycle… 30/138    398/46… 1.35e-6  2.85e-4 2.31e-4
    ##  3 early.up early   R-HS… Mitotic G1… 15/138    118/46… 1.71e-6  2.85e-4 2.31e-4
    ##  4 early.up early   R-HS… TP53 Regul… 8/138     32/4603 3.05e-6  3.80e-4 3.08e-4
    ##  5 early.up early   R-HS… G0 and Ear… 6/138     17/4603 6.14e-6  6.12e-4 4.97e-4
    ##  6 early.up early   R-HS… G1/S Trans… 13/138    107/46… 1.45e-5  1.21e-3 9.80e-4
    ##  7 early.up early   R-HS… Kinesins    7/138     32/4603 3.36e-5  2.39e-3 1.94e-3
    ##  8 early.up early   R-HS… Cell Cycle… 18/138    214/46… 5.66e-5  3.53e-3 2.86e-3
    ##  9 early.up early   R-HS… Factors in… 10/138    80/4603 1.16e-4  6.39e-3 5.19e-3
    ## 10 early.up early   R-HS… alpha-lino… 4/138     10/4603 1.41e-4  6.39e-3 5.19e-3
    ## # ℹ 319 more rows
    ## # ℹ 2 more variables: geneID <chr>, Count <int>

``` r
results.clusters %>% 
  group_by(Cluster) %>% 
  slice_min(order_by = p.adjust, n = 5) %>% 
  separate_longer_delim(geneID, delim = "/") %>% 
  count(geneID) %>% 
  slice_max(order_by = n, n = 5)
```

    ## # A tibble: 60 × 3
    ## # Groups:   Cluster [5]
    ##    Cluster    geneID      n
    ##    <fct>      <chr>   <int>
    ##  1 early.up   CCNA2       5
    ##  2 early.up   CDK2        5
    ##  3 early.up   PCNA        5
    ##  4 early.up   RBL1        5
    ##  5 early.up   CCNB1       4
    ##  6 early.up   CDKN1A      4
    ##  7 early.up   MYC         4
    ##  8 early.up   TOP2A       4
    ##  9 gradual.up ATP5F1C     2
    ## 10 gradual.up ATP5F1D     2
    ## # ℹ 50 more rows
…
