…
## Import

Import protein DE data

``` r
dat.protein <- read_tsv("Output/proteomic_DE_all.tsv")

dat.protein
```

    ## # A tibble: 45,570 × 8
    ##    gene.name logFC.protein AveExpr       t P.Value adj.P.Val.protein     B
    ##    <chr>             <dbl>   <dbl>   <dbl>   <dbl>             <dbl> <dbl>
    ##  1 TRAV12-2        -0.148     11.2 -0.691  0.503               0.771 -6.59
    ##  2 NBDY            -0.753     10.7 -3.08   0.00960             0.122 -3.12
    ##  3 UBA6            -0.125     14.8 -1.82   0.0934              0.385 -5.27
    ##  4 ESYT2            0.0606    15.5  0.738  0.475               0.755 -6.56
    ##  5 MED19            0.203     12.1  1.49   0.161               0.478 -5.75
    ##  6 UHRF1BP1L        0.136     11.6  0.829  0.423               0.719 -6.48
    ##  7 TMEM223          0.0115    12.2  0.0941 0.927               0.973 -6.84
    ##  8 ARHGAP10         0.378     10.2  1.54   0.150               0.467 -5.69
    ##  9 ILVBL            0.195     15.0  2.79   0.0163              0.166 -3.64
    ## 10 ZC3H12D         -0.651     10.3 -2.42   0.0325              0.236 -4.30
    ## # ℹ 45,560 more rows
    ## # ℹ 1 more variable: comparison <chr>

Import RNA DE data

``` r
dat.rna <- read_tsv("Output/RNA_DE_all.tsv")

dat.rna
```

    ## # A tibble: 74,025 × 8
    ##    gene.name logFC.rna AveExpr      t P.Value adj.P.Val.rna      B comparison
    ##    <chr>         <dbl>   <dbl>  <dbl>   <dbl>         <dbl>  <dbl> <chr>     
    ##  1 DPM1         1.11      3.53  4.22  0.00114        0.0138 -0.875 T2h - T0h 
    ##  2 SCYL3       -0.539     3.03 -1.37  0.197          0.434  -5.75  T2h - T0h 
    ##  3 FIRRM        1.88      2.28  2.96  0.0117         0.0672 -3.17  T2h - T0h 
    ##  4 FGR         -0.181     2.28 -0.217 0.832          0.972  -6.65  T2h - T0h 
    ##  5 FUCA2        0.0362    2.31  0.104 0.919          0.998  -6.67  T2h - T0h 
    ##  6 GCLC         0.308     4.09  0.661 0.521          0.776  -6.44  T2h - T0h 
    ##  7 NFYA         0.784     4.24  1.59  0.138          0.345  -5.46  T2h - T0h 
    ##  8 NIPAL3      -1.74      4.06 -4.12  0.00135        0.0154 -1.05  T2h - T0h 
    ##  9 LAS1L       -0.982     5.25 -1.20  0.251          0.506  -5.94  T2h - T0h 
    ## 10 ANKIB1       0.0951    4.70  0.283 0.782          0.950  -6.63  T2h - T0h 
    ## # ℹ 74,015 more rows
…
