…
dat.rna %>% 
  dplyr::select(-ensembl.id) %>% 
  pivot_longer(-gene.name, names_to = "sample", values_to = "logTPM") %>% 
  separate(sample, into = c("donor", "timepoint")) %>% 
  mutate(timepoint = paste0("T", str_remove(timepoint, "0"))) %>% 
  mutate(donor = case_when(donor == "D1" ~ "donor1", donor == "D2" ~ "donor2", TRUE ~ "donor3")) %>% 
  mutate(timepoint = factor(timepoint, levels = c("T0h", "T2h", "T4h", "T6h", "T24h"))) %>% 
  group_by(donor, timepoint) %>% 
  distinct(gene.name, .keep_all = T) %>% 
  ungroup() -> dat.rna
  
dat.rna
```

    ## # A tibble: 158,640 × 4
    ##    gene.name donor  timepoint logTPM
    ##    <chr>     <chr>  <fct>      <dbl>
    ##  1 DPM1      donor1 T0h         2.82
    ##  2 DPM1      donor1 T2h         4.19
    ##  3 DPM1      donor1 T4h         3.93
    ##  4 DPM1      donor1 T6h         3.30
    ##  5 DPM1      donor1 T24h        3.90
    ##  6 DPM1      donor2 T0h         2.93
    ##  7 DPM1      donor2 T2h         3.86
    ##  8 DPM1      donor2 T4h         3.86
    ##  9 DPM1      donor2 T6h         3.59
    ## 10 DPM1      donor2 T24h        3.23
    ## # ℹ 158,630 more rows
…
``` r
dat.protein.all %>% 
  dplyr::select(gene.name, donor, LFQ, timepoint) %>% 
  group_by(donor, timepoint) %>% 
  distinct(gene.name, .keep_all = T) %>% 
  ungroup() %>% 
  inner_join(dat.rna) %>%
  mutate(timepoint = factor(timepoint, levels = c("T0h", "T2h", "T4h", "T6h", "T24h"))) %>% 
  na.omit() -> dat.counts.combined

dat.counts.combined
```

    ## # A tibble: 84,023 × 5
    ##    gene.name donor    LFQ timepoint logTPM
    ##    <chr>     <chr>  <dbl> <fct>      <dbl>
    ##  1 E2F8      donor1  9.33 T0h         1.64
    ##  2 E2F8      donor1 10.1  T2h         1.90
    ##  3 E2F8      donor1 10.1  T4h         2.65
    ##  4 E2F8      donor1  9.35 T6h         2.78
    ##  5 E2F8      donor1  9.99 T24h        4.26
    ##  6 E2F8      donor2 10.1  T2h         3.66
    ##  7 E2F8      donor2  9.70 T4h         2.47
    ##  8 E2F8      donor2  9.65 T6h         3.21
    ##  9 E2F8      donor2 10.1  T24h        5.18
    ## 10 E2F8      donor3 10.2  T2h         3.57
    ## # ℹ 84,013 more rows

Extract the proteins that change

``` r
dat.counts.combined %>% 
  filter(gene.name %in% prots.change) %>% 
  group_by(gene.name) %>% 
  filter(n() > 6) %>% 
  ungroup() -> dat.input

dat.input
```

    ## # A tibble: 24,444 × 5
    ##    gene.name donor    LFQ timepoint logTPM
    ##    <chr>     <chr>  <dbl> <fct>      <dbl>
    ##  1 GTPBP10   donor1  11.8 T0h         2.36
    ##  2 GTPBP10   donor1  11.4 T2h         1.85
    ##  3 GTPBP10   donor1  11.3 T4h         3.03
    ##  4 GTPBP10   donor1  11.4 T6h         2.74
    ##  5 GTPBP10   donor1  12.0 T24h        3.07
    ##  6 GTPBP10   donor2  11.8 T0h         2.68
    ##  7 GTPBP10   donor2  11.1 T2h         2.17
    ##  8 GTPBP10   donor2  11.5 T4h         2.33
    ##  9 GTPBP10   donor2  11.4 T6h         2.79
    ## 10 GTPBP10   donor2  12.0 T24h        2.89
    ## # ℹ 24,434 more rows
…
dat.cors %>% 
  bind_rows() %>% 
  filter(lag == 0) %>% 
  transmute(gene.name = gene.name, cor = cor, p = p) %>% 
  inner_join(dat.tmp, by = "gene.name") -> dat.lagged.cors

dat.lagged.cors
```

    ## # A tibble: 1,746 × 6
    ##    gene.name    cor      p best.cor  best.p   lag
    ##    <chr>      <dbl>  <dbl>    <dbl>   <dbl> <dbl>
    ##  1 AAK1      -0.095 0.75       0.58 0.0655      1
    ##  2 AAMP       0.47  0.0938     0.52 0.197       2
    ##  3 AAR2       0.21  0.473      0.95 0.00114     2
    ##  4 ABCB10     0.64  0.0163     0.64 0.0163      0
    ##  5 ABCD3      0.59  0.0303     0.59 0.0303      0
    ##  6 ABCF2      0.18  0.532      0.67 0.0831      2
    ##  7 ABHD14B   -0.15  0.616      0.4  0.225       1
    ##  8 ABI1      -0.24  0.417      0.25 0.451       1
    ##  9 ABI3      -0.31  0.281     -0.31 0.281       0
    ## 10 ABL1      -0.13  0.671     -0.19 0.665       2
    ## # ℹ 1,736 more rows
…
